\relax 
\providecommand\hyper@newdestlabel[2]{}
\providecommand*\HyPL@Entry[1]{}
\HyPL@Entry{0<</S/D>>}
\newlabel{research-interests}{{}{1}{}{section*.1}{}}
\newlabel{current-academic-position}{{}{1}{}{section*.2}{}}
\newlabel{past-academic-positions}{{}{1}{}{section*.3}{}}
\newlabel{industry-work}{{}{1}{}{section*.4}{}}
\newlabel{education}{{}{1}{}{section*.5}{}}
\newlabel{other-certified-educational-experiences}{{}{1}{}{section*.6}{}}
\newlabel{fieldwork}{{}{2}{}{section*.7}{}}
\bibcite{ref-Palmisano_et_al_2024}{\citeproctext }
\bibcite{ref-Sconzo.etal-mesopotamia}{\citeproctext }
\bibcite{ref-Titolo-mesopotamia}{\citeproctext }
\bibcite{ref-Titolo_et_al_2024}{\citeproctext }
\bibcite{ref-Sconzo.etal2023}{\citeproctext }
\bibcite{ref-haider_et_al_2022}{\citeproctext }
\bibcite{ref-sconzo-qasim_2021}{\citeproctext }
\bibcite{ref-titoloUseTimeSeriesNDWI2021}{\citeproctext }
\bibcite{ref-titoloAssyrianImperialFrontiers2020}{\citeproctext }
\newlabel{journal-articles}{{}{3}{}{section*.8}{}}
\newlabel{refs-84a9aea20b64fd2d09850466a43dddaf}{{}{3}{}{section*.9}{}}
\bibcite{ref-caselliToolsObjectsTell2020}{\citeproctext }
\bibcite{ref-pinnock_et_al_2023}{\citeproctext }
\bibcite{ref-Sconzo-Simi-Titolo-CHNT}{\citeproctext }
\bibcite{ref-dandrea_et_al_2023}{\citeproctext }
\bibcite{ref-titolo-hopper-hewett_lagodekhirs_2021}{\citeproctext }
\bibcite{ref-citekey}{\citeproctext }
\bibcite{ref-titolo_palmisano_2024}{\citeproctext }
\bibcite{ref-titolo_palmisano_2023}{\citeproctext }
\bibcite{ref-iacobucci_titolo_icaane_2023}{\citeproctext }
\bibcite{ref-sconzo_simi_titolo_icaane_2023}{\citeproctext }
\bibcite{ref-titolo_icaane_2023}{\citeproctext }
\bibcite{ref-titolo_2023}{\citeproctext }
\bibcite{ref-sconzo_simi_titolo_palermo_2023}{\citeproctext }
\bibcite{ref-iacobucci_et_al_2022}{\citeproctext }
\newlabel{book-chapters}{{}{4}{}{section*.10}{}}
\newlabel{refs-42777ec1e7563105c313727d478488f9}{{}{4}{}{section*.11}{}}
\newlabel{in-press}{{}{4}{}{section*.12}{}}
\newlabel{refs-602b70f3d19bdd2f08b4ff46c8737d45}{{}{4}{}{section*.13}{}}
\newlabel{in-preparation}{{}{4}{}{section*.14}{}}
\newlabel{refs-bfa3c374618635e8cf634333c956f2fd}{{}{4}{}{section*.15}{}}
\newlabel{phd-thesis-unpublished}{{}{4}{}{section*.16}{}}
\newlabel{refs-fa8bf6f3e11520967a7f4144e6678d4c}{{}{4}{}{section*.17}{}}
\newlabel{conferences-and-congresses}{{}{4}{}{section*.18}{}}
\newlabel{refs-717b3063215aa88af3e1196c3b55a0b6}{{}{4}{}{section*.19}{}}
\bibcite{ref-sconzo_simi_titolo_chnt_2021}{\citeproctext }
\bibcite{ref-titolo_prin_workshop_2021}{\citeproctext }
\bibcite{ref-titolo_icaane_2021}{\citeproctext }
\bibcite{ref-titolo_ssda_2020}{\citeproctext }
\bibcite{ref-titolo_banea_2020}{\citeproctext }
\bibcite{ref-titolo_bh6}{\citeproctext }
\bibcite{ref-titolo_ssda_2019}{\citeproctext }
\bibcite{ref-titolo_bh5_2018}{\citeproctext }
\bibcite{ref-titolo_icaane_2018}{\citeproctext }
\bibcite{ref-titolo_banea_2018}{\citeproctext }
\bibcite{ref-titolo_ssda_2018}{\citeproctext }
\newlabel{organized-conferences}{{}{5}{}{section*.20}{}}
\newlabel{awarded-scholarships}{{}{5}{}{section*.21}{}}
\newlabel{teaching-experience}{{}{6}{}{section*.22}{}}
\newlabel{other-working-experiences}{{}{6}{}{section*.23}{}}
\newlabel{online-certified-educational-experiences}{{}{6}{}{section*.24}{}}
\newlabel{language-proficency}{{}{6}{}{section*.25}{}}
\newlabel{computer-and-technical-skills}{{}{7}{}{section*.26}{}}
\newlabel{references}{{}{7}{}{section*.27}{}}
\gdef \@abspage@last{7}
